\relax 
\citation{daley1993atmospheric,jones2009high}
\citation{manjunath1996texture,zumberge1997precise}
\citation{carrington2005models,becker2013human}
\citation{huang2009systematic,schafer2005empirical}
\citation{gajamannage2015identifying,gajamannage2015detecting}
\citation{van2009dimensionality}
\citation{jolliffe2002principal}
\citation{cox2000multidimensional}
\citation{tenenbaum2000global}
\citation{delellis2014collective}
\citation{yang2002face}
\citation{yang2002extended}
\citation{balasubramanian2002isomap}
\citation{lee2002curvilinear}
\citation{zha2003isometric}
\citation{scholkopf1998nonlinear}
\citation{van2009dimensionality}
\citation{lafon2006diffusion}
\citation{mishne2013multiscale}
\citation{roweis2000nonlinear}
\citation{donoho2003hessian}
\citation{belkin2001laplacian}
\citation{xiang2009nonlinear}
\citation{gajamannage2015dimensionality}
\@writefile{toc}{\contentsline {section}{\numberline {1}Introduction}{1}}
\newlabel{sec:introduction}{{1}{1}}
\citation{floyd1962algorithm}
\citation{floyd1962algorithm}
\citation{friedman1977algorithm}
\citation{agarwal1999geometric}
\citation{dijkstra1959note}
\citation{floyd1962algorithm}
\@writefile{lof}{\contentsline {figure}{\numberline {1}{\ignorespaces Graph structure in Isomap and geodesics used therein to compute the manifold's distance are demonstrated by a spherical dataset with 300 points with three nearest neighbors. (a) The graph structure representing node and edges is used in Isomap to compute geodesics. The red path is the geodesic between points $\boldsymbol  {\alpha }$ and $\boldsymbol  {\beta }$ which is the shortest path between those points computed by the Floyd's algorithm available in \cite  {floyd1962algorithm}. (b) The smoothing spline shown by the black curve through the points in the geodesic.\relax }}{2}}
\providecommand*\caption@xref[2]{\@setref\relax\@undefined{#1}}
\newlabel{fig:sphere_with_network}{{1}{2}}
\@writefile{toc}{\contentsline {section}{\numberline {2}Multidimensional scaling and Isomap}{2}}
\newlabel{sec:mds_isomap}{{2}{2}}
\@writefile{toc}{\contentsline {subsection}{\numberline {2.1}Multidimensional scaling}{2}}
\newlabel{sec:mds}{{2.1}{2}}
\newlabel{eqn:double_centering}{{3}{2}}
\newlabel{eqn:evd}{{4}{2}}
\newlabel{eqn:latent_var}{{5}{2}}
\@writefile{toc}{\contentsline {subsection}{\numberline {2.2}Isomap}{2}}
\citation{reinsch1967smoothing,de1972calculating}
\citation{reinsch1967smoothing}
\citation{friedman1977algorithm}
\citation{agarwal1999geometric}
\citation{floyd1962algorithm}
\@writefile{toc}{\contentsline {section}{\numberline {3}Smoothing geodesics embedding}{3}}
\newlabel{sec:sge}{{3}{3}}
\newlabel{eqn:spline}{{7}{3}}
\newlabel{eqn:spl_interval}{{9}{3}}
\newlabel{eqn:len}{{10}{3}}
\@writefile{loa}{\contentsline {algorithm}{\numberline {1}{\ignorespaces  \textit  {Smoothing Geodesics Embedding (SGE).   Inputs: Data ($\boldsymbol  {Y}$), number of nearest neighbors ($k$) or radius of range ($\epsilon $), smoothing parameter ($s$), and embedding dimension ($p$).  Outputs: List of $p$ largest eigenvalues ($\lambda _l;l=1,\dots  ,p$), and $p$-dimensional embedding ($\mathaccentV {hat}05E{\boldsymbol  {X}}$). }\relax }}{3}}
\newlabel{alg:detecting_transitions}{{1}{3}}
\@writefile{toc}{\contentsline {section}{\numberline {4}Examples}{3}}
\@writefile{toc}{\contentsline {subsection}{\numberline {4.1}A sphere}{3}}
\citation{reinsch1967smoothing}
\bibstyle{IEEEtran}
\bibdata{ref}
\bibcite{daley1993atmospheric}{1}
\bibcite{jones2009high}{2}
\bibcite{manjunath1996texture}{3}
\bibcite{zumberge1997precise}{4}
\bibcite{carrington2005models}{5}
\bibcite{becker2013human}{6}
\bibcite{huang2009systematic}{7}
\bibcite{schafer2005empirical}{8}
\bibcite{gajamannage2015identifying}{9}
\bibcite{gajamannage2015detecting}{10}
\bibcite{van2009dimensionality}{11}
\bibcite{jolliffe2002principal}{12}
\bibcite{cox2000multidimensional}{13}
\bibcite{tenenbaum2000global}{14}
\bibcite{delellis2014collective}{15}
\bibcite{yang2002face}{16}
\bibcite{yang2002extended}{17}
\bibcite{balasubramanian2002isomap}{18}
\bibcite{lee2002curvilinear}{19}
\bibcite{zha2003isometric}{20}
\bibcite{scholkopf1998nonlinear}{21}
\bibcite{lafon2006diffusion}{22}
\bibcite{mishne2013multiscale}{23}
\bibcite{roweis2000nonlinear}{24}
\bibcite{donoho2003hessian}{25}
\@writefile{lof}{\contentsline {figure}{\numberline {2}{\ignorespaces Two-dimensional embedding of the spherical dataset. (a) The embedding using SGE with $k=4$ and $s=n$, and embedding of the isomap is shown by (b).\relax }}{4}}
\newlabel{fig:sphere_embedding}{{2}{4}}
\@writefile{toc}{\contentsline {section}{\numberline {5}Conclusion}{4}}
\@writefile{toc}{\contentsline {section}{Appendix\nobreakspace  A: Proof of the First Zonklar Equation}{4}}
\@writefile{toc}{\contentsline {section}{Appendix\nobreakspace  B}{4}}
\@writefile{toc}{\contentsline {section}{References}{4}}
\bibcite{belkin2001laplacian}{26}
\bibcite{xiang2009nonlinear}{27}
\bibcite{gajamannage2015dimensionality}{28}
\bibcite{floyd1962algorithm}{29}
\bibcite{friedman1977algorithm}{30}
\bibcite{agarwal1999geometric}{31}
\bibcite{dijkstra1959note}{32}
\bibcite{reinsch1967smoothing}{33}
\bibcite{de1972calculating}{34}
\@writefile{toc}{\contentsline {section}{Biographies}{5}}
\@writefile{toc}{\contentsline {subsection}{Kelum Gajamannage}{5}}
\@writefile{toc}{\contentsline {subsection}{Randy Paffenroth}{5}}
